%YAML 1.1
%TAG !u! tag:unity3d.com,2011:
--- !u!687078895 &4343727234628468602
SpriteAtlas:
  m_ObjectHideFlags: 0
  m_CorrespondingSourceObject: {fileID: 0}
  m_PrefabInstance: {fileID: 0}
  m_PrefabAsset: {fileID: 0}
  m_Name: SpriteAtlas
  m_EditorData:
    serializedVersion: 2
    textureSettings:
      serializedVersion: 2
      anisoLevel: 1
      compressionQuality: 50
      maxTextureSize: 2048
      textureCompression: 0
      filterMode: 1
      generateMipMaps: 0
      readable: 0
      crunchedCompression: 0
      sRGB: 1
    platformSettings: []
    packingSettings:
      serializedVersion: 2
      padding: 4
      blockOffset: 1
      allowAlphaSplitting: 0
      enableRotation: 0
      enableTightPacking: 0
    variantMultiplier: 1
    packables:
    - {fileID: 102900000, guid: 0e7bdcbeb45349e46a4d5446d2dddd8c, type: 3}
    totalSpriteSurfaceArea: 403255
    bindAsDefault: 1
    storedHash:
      serializedVersion: 2
      Hash: ba73b506bda81b147cb8866bfbdc2e18
  m_MasterAtlas: {fileID: 0}
  m_PackedSprites:
  - {fileID: 21300000, guid: 2fcd1e0066033d04c9b5d40327525023, type: 3}
  - {fileID: 21300000, guid: f006d65037929ed499b3b8dc2d4d830a, type: 3}
  - {fileID: 21300000, guid: 57fd1070a413f2045b58322ec6a089cb, type: 3}
  - {fileID: 21300000, guid: c7fe9e70cb4cb8944b5207793155259f, type: 3}
  - {fileID: 21300000, guid: 0350e801b9f9cf742a683a3654b766bf, type: 3}
  - {fileID: 21300000, guid: 3afa69e187d7d6a44a7c0fbda8f83da2, type: 3}
  - {fileID: 21300000, guid: d1726bb291bf4e34989fc2996aea27eb, type: 3}
  - {fileID: 21300000, guid: 529fbbc2b4268f34aa07f4d976d055bd, type: 3}
  - {fileID: 21300000, guid: 736bba435fa4f6d4588b698923b5489d, type: 3}
  - {fileID: 21300000, guid: 00b06c15033eb004e9cac8eff080826d, type: 3}
  - {fileID: 21300000, guid: 43531e353c4d92146a60a7ffa46ace60, type: 3}
  - {fileID: 21300000, guid: 81bd7ad5d09828a4b9f50070f80f5382, type: 3}
  - {fileID: 21300000, guid: 10c629d68978a9b408954cd1aeab4402, type: 3}
  - {fileID: 21300000, guid: 06ea4ee6ee4f7d84ea372857ec232208, type: 3}
  - {fileID: 21300000, guid: 6d148927bfdc91743b20d920a35c52ba, type: 3}
  - {fileID: 21300000, guid: 49af58481df9952448bee46f10a24999, type: 3}
  - {fileID: 21300000, guid: f3613168b3f97154b9fdcffcff6f8e08, type: 3}
  - {fileID: 21300000, guid: 6e023af8619dee7409efc56a5c233de6, type: 3}
  - {fileID: 21300000, guid: e98f0c49fa42cc444a0b64034bbaa8a2, type: 3}
  - {fileID: 21300000, guid: 972bc699dcdc58a46844311e65e42806, type: 3}
  - {fileID: 21300000, guid: cb0d84f9651b72240acd6018b6f0b503, type: 3}
  - {fileID: 21300000, guid: da39abdaf0c12ea4aa94f7ef6f2a1d8e, type: 3}
  - {fileID: 21300000, guid: e581db1be8ffe2642a363def8177e6bf, type: 3}
  - {fileID: 21300000, guid: 6314463bcc853ba4f884a2df6783d8c5, type: 3}
  - {fileID: 21300000, guid: 5127d94b2fa282d498bf284cd2048604, type: 3}
  - {fileID: 21300000, guid: ca58618b32010d148bfa6ee82981ade4, type: 3}
  - {fileID: 21300000, guid: 27014b9b4cb509844a9b1f91a36babb4, type: 3}
  - {fileID: 21300000, guid: 86244dab65527764b8eac06ba5cde92f, type: 3}
  - {fileID: 21300000, guid: 771c0ddb955067843bd116c7adf39195, type: 3}
  - {fileID: 21300000, guid: b80aee4cf49244043933934e7a5f4438, type: 3}
  - {fileID: 21300000, guid: b15c659cd4426af4aa60a87cad5d682a, type: 3}
  - {fileID: 21300000, guid: 2277e99cc4b2f37489358d5ad526cbe8, type: 3}
  - {fileID: 21300000, guid: 910243fcd5857dd43a8e3164af7e2f36, type: 3}
  - {fileID: 21300000, guid: cdc8c62d5bcc9ad4f8ea09932a322cea, type: 3}
  - {fileID: 21300000, guid: 5888de2d3bb019e40be2d9d580079f10, type: 3}
  - {fileID: 21300000, guid: c622514efd33ab8419baa61c6bfc0b7c, type: 3}
  - {fileID: 21300000, guid: be54854eee97fb64b8c89dc92511ea6b, type: 3}
  - {fileID: 21300000, guid: 1055a94e9bb388843b454248b66cd71e, type: 3}
  - {fileID: 21300000, guid: e214b26e035179141abeafbcc85a059c, type: 3}
  - {fileID: 21300000, guid: 694062deabbc8264f8b35e24e45d70c9, type: 3}
  m_PackedSpriteNamesToIndex:
  - Icons_Google_Unknown
  - Icons_Google_Word
  - Icons_Minimize
  - Icons_Help
  - Icons_Upload
  - ProgressBarHighlight
  - CornerPanelRadius_6px_Fill_Right_Bottom
  - Icons_Server
  - CornerPanelRadius_6px_Fill_Left_Top
  - CornerPanelRadius_6px_Fill_Shadow
  - Icons_Google_Json
  - Icons_Google_Slides
  - Icons_Google_Pdf
  - MainPanelShadow
  - Icons_Info
  - Arrow_HandDrawn
  - Toggle_On
  - Icons_Google_Excel
  - Icons_Options
  - Icons_Maximize
  - Icons_Download
  - Arrow
  - Icons_Drive
  - CornerPanelRadius_6px_Fill_Right_Top
  - Icons_Google_Document
  - Icons_Google_Csv
  - Icons_Warning
  - Icons_Google_Ppt
  - CornerPanelRadius_6px_Stroke_4px
  - Icons_Playfab
  - Icons_Check
  - Icons_Logout
  - CornerPanelRadius_6px_Stroke_2px
  - Icons_Google_Folder
  - Toggle_Off
  - CornerPanelRadius_6px_Fill
  - Icons_Error
  - Icons_Settings
  - CornerPanelRadius_6px_Fill_Left_Bottom
  - Icons_Google_Sheet
  m_Tag: SpriteAtlas
  m_IsVariant: 0
