%YAML 1.1
%TAG !u! tag:unity3d.com,2011:
--- !u!114 &11400000
MonoBehaviour:
  m_ObjectHideFlags: 0
  m_CorrespondingSourceObject: {fileID: 0}
  m_PrefabInstance: {fileID: 0}
  m_PrefabAsset: {fileID: 0}
  m_GameObject: {fileID: 0}
  m_Enabled: 1
  m_EditorHideFlags: 0
  m_Script: {fileID: 11500000, guid: 5d0199c11aa6f514784c5c69cd8378d8, type: 3}
  m_Name: PlayFabEditorPrefsSO
  m_EditorClassIdentifier: 
  DevAccountEmail: damianrizzotto@gmail.com
  DevAccountToken: wiyqponc9zu8itqkdmgbpj4efpnoq1p58hikycmmp1nuithci7z1dpfy4io6s9j3w53ykozicu36j3s5r3unum3zqyi9wyzkg6ztecrmfhrgjyicf6wfg3soiyat3xf6d8xqejp7n5p71tnx4cu1t1hb8dct81r3njh9r7xwsp8mk51j61s73bsztbkcmc9rj55eaw4x
  SelectedStudio: Demo Game Studio
  SdkPath: Assets/PlayFabSdk
  EdExPath: 
  LocalCloudScriptPath: 
  PanelIsShown: 0
  curMainMenuIdx: 3
  curSubMenuIdx: 0
